11 Wrangling – COMP/STAT112 Notebook
…
Exercise 7: summarize Demo

  median(repub_pct_20)
1                68.29

  median_repub
1        68.29

  median_repub total_votes
1        68.29   157949293

Exercise 8: summarize + group_by demo

# A tibble: 50 × 3
   state_name           median_repub total_votes
   <chr>                       <dbl>       <int>
 1 Alabama                      70.6     2323304
 2 Arizona                      57.9     3387326
 3 Arkansas                     72.1     1219069
 4 California                   44.8    17495906
 5 Colorado                     56.2     3256953
 6 Connecticut                  41.0     1824280
 7 Delaware                     47.1      504010
 8 District of Columbia          5.4      344356
 9 Florida                      64.6    11067456
10 Georgia                      68       4997716
# ℹ 40 more rows

Exercise 9: DIY

Part a

# A tibble: 50 × 2
   state_name        total
   <chr>             <int>
 1 California     17495906
 2 Texas          11317911
 3 Florida        11067456
 4 New York        8616205
 5 Pennsylvania    6925255
 6 Illinois        6038850
 7 Ohio            5922202
 8 Michigan        5539302
 9 North Carolina  5524801
10 Georgia         4997716
# ℹ 40 more rows

# A tibble: 50 × 3
   state_name           dem_total repub_total
   <chr>                    <dbl>       <dbl>
 1 Alabama                 849664     1441155
 2 Arizona                1672127     1661671
 3 Arkansas                423919      760641
 4 California            11109642     6006031
 5 Colorado               1804393     1364627
 6 Connecticut            1080677      715315
 7 Delaware                296274      200601
 8 District of Columbia    317324       18595
 9 Florida                5297131     5668600
10 Georgia                2473661     2461869
# ℹ 40 more rows

# A tibble: 26 × 3
   state_name           dem_total repub_total
   <chr>                    <dbl>       <dbl>
 1 Arizona                1672127     1661671
 2 California            11109642     6006031
 3 Colorado               1804393     1364627
 4 Connecticut            1080677      715315
 5 Delaware                296274      200601
 6 District of Columbia    317324       18595
 7 Georgia                2473661     2461869
 8 Hawaii                  366121      196865
 9 Illinois               3471916     2446931
10 Maine                   430466      359897
# ℹ 16 more rows
…
